http://107.151.152.218:80
http://45.55.201.42:8080
http://158.106.79.99:3128
http://96.44.162.26:80
http://70.167.44.245:8080
http://128.30.92.46:3128
http://91.134.213.163:3128
http://54.171.52.126:8888
http://52.37.222.1:3128
http://162.144.152.225:8080
http://46.234.113.97:80
http://46.105.148.146:3128
http://89.140.125.17:80
http://51.255.194.125:80
http://177.223.63.30:8080
http://107.151.152.220:80
http://181.198.82.138:80
http://107.151.136.197:80
http://107.151.152.212:80
http://107.151.136.202:80
